…
# We can use the following as our coloring scheme (uncomment if needed below)
#swatch(col_sample)
#swatch(col_farm)
#swatch(col_tax)
#swatch(col_phy)
```

## Print dataset structure

``` r
as_tibble(mt_smpl)
```

    ## # A tibble: 75 × 7
    ##    Sample Farm_Num Sample_group Farm_type Sample_type Company TotalReads
    ##    <fct>  <fct>    <fct>        <fct>     <fct>       <fct>        <int>
    ##  1 C2F1L  FN1      C2F1L        Pullet    Litter      A         78823314
    ##  2 C2F1S  FN1      C2F1S        Pullet    Soil        A         89536814
    ##  3 C2F4F1 FN2      C2F4F        Pullet    <NA>        A         41022956
    ##  4 C2F4F2 FN2      C2F4F        Pullet    <NA>        A         37557920
    ##  5 C2F4F3 FN2      C2F4F        Pullet    <NA>        A         49042293
    ##  6 C2F4L1 FN2      C2F4L        Pullet    Litter      A         48994993
    ##  7 C2F4L2 FN2      C2F4L        Pullet    Litter      A         53297079
    ##  8 C2F4L3 FN2      C2F4L        Pullet    Litter      A         40989190
    ##  9 C2F4S1 FN2      C2F4S        Pullet    Soil        A         37288480
    ## 10 C2F4S2 FN2      C2F4S        Pullet    Soil        A         49869876
    ## # ℹ 65 more rows
…
phycount_div <- phycount_div %>%
  group_by(Sample_group) %>%
  mutate(m_Observed = mean(Observed),
         sd_Observed = sd(Observed),
         m_Shannon = mean(Shannon),
         sd_Shannon = sd(Shannon),
         m_Simpson = mean(Simpson),
         sd_Simpson = sd(Simpson)
         )

phycount_div
```

    ## # A tibble: 73 × 16
    ## # Groups:   Sample_group [55]
    ##    Sample  Observed Shannon Simpson Farm_Num Sample_group Farm_type Sample_type
    ##    <chr>      <dbl>   <dbl>   <dbl> <fct>    <fct>        <fct>     <fct>      
    ##  1 C12FCHL      320    3.85   0.961 FN21     C12FCHL      Pullet    Litter     
    ##  2 C12FCHS      503    5.14   0.990 FN21     C12FCHS      Pullet    Soil       
    ##  3 C13FJBL      219    3.40   0.927 FN22     C13FJBL      Pullet    Litter     
    ##  4 C13FJBS      600    5.06   0.984 FN22     C13FJBS      Pullet    Soil       
    ##  5 C15FNSL      299    2.91   0.808 FN24     C15FNSL      Breeder   Litter     
    ##  6 C15FNSS      385    4.82   0.986 FN24     C15FNSS      Breeder   Soil       
    ##  7 C15FTCL      398    3.34   0.884 FN25     C15FTCL      Breeder   Litter     
    ##  8 C15FTCS      318    3.40   0.849 FN25     C15FTCS      Breeder   Soil       
    ##  9 C16FHWL      390    3.90   0.952 FN26     C16FHWL      Breeder   Litter     
    ## 10 C16FHWS      457    3.80   0.939 FN26     C16FHWS      Breeder   Soil       
    ## # ℹ 63 more rows
    ## # ℹ 8 more variables: Company <fct>, TotalReads <int>, m_Observed <dbl>,
    ## #   sd_Observed <dbl>, m_Shannon <dbl>, sd_Shannon <dbl>, m_Simpson <dbl>,
    ## #   sd_Simpson <dbl>
…
Re-ordering factors so that the main colors of the swatch correspond to
the most abundant phyla across:

``` r
#Summarizing counts by phyla

tbl_mstr_pc %>% 
  group_by(Phylum) %>% 
  summarise(Count = sum(Count)) %>% 
  arrange(Count) %>%
  select(Phylum) %>%
  ungroup()
```

    ## # A tibble: 28 × 1
    ##    Phylum                     
    ##    <fct>                      
    ##  1 Deferribacteres            
    ##  2 Rhodothermaeota            
    ##  3 Candidatus_Adlerbacteria   
    ##  4 Candidatus_Saccharibacteria
    ##  5 Lentisphaerae              
    ##  6 Spirochaetes               
    ##  7 Ascomycota                 
    ##  8 Chlamydiae                 
    ##  9 Synergistetes              
    ## 10 Verrucomicrobia            
    ## # ℹ 18 more rows
…
